%YAML 1.1
%TAG !u! tag:unity3d.com,2011:
--- !u!1 &5076982813003823054
GameObject:
  m_ObjectHideFlags: 0
  m_CorrespondingSourceObject: {fileID: 0}
  m_PrefabInstance: {fileID: 0}
  m_PrefabAsset: {fileID: 0}
  serializedVersion: 6
  m_Component:
  - component: {fileID: 5076982813003823048}
  - component: {fileID: 5076982813003823055}
  - component: {fileID: 8898929690124202198}
  - component: {fileID: 6239753086581085822}
  m_Layer: 0
  m_Name: Enemy
  m_TagString: Enemy
  m_Icon: {fileID: 0}
  m_NavMeshLayer: 0
  m_StaticEditorFlags: 0
  m_IsActive: 1
--- !u!4 &5076982813003823048
Transform:
  m_ObjectHideFlags: 0
  m_CorrespondingSourceObject: {fileID: 0}
  m_PrefabInstance: {fileID: 0}
  m_PrefabAsset: {fileID: 0}
  m_GameObject: {fileID: 5076982813003823054}
  m_LocalRotation: {x: 0, y: 0, z: 0, w: 1}
  m_LocalPosition: {x: 1.727, y: 1.41, z: 0}
  m_LocalScale: {x: 0.8, y: 0.8, z: 0.8}
  m_Children:
  - {fileID: 5419286155633938079}
  - {fileID: 6168336945332617624}
  m_Father: {fileID: 0}
  m_RootOrder: 0
  m_LocalEulerAnglesHint: {x: 0, y: 0, z: 0}
--- !u!212 &5076982813003823055
SpriteRenderer:
  m_ObjectHideFlags: 0
  m_CorrespondingSourceObject: {fileID: 0}
  m_PrefabInstance: {fileID: 0}
  m_PrefabAsset: {fileID: 0}
  m_GameObject: {fileID: 5076982813003823054}
  m_Enabled: 1
  m_CastShadows: 0
  m_ReceiveShadows: 0
  m_DynamicOccludee: 1
  m_MotionVectors: 1
  m_LightProbeUsage: 1
  m_ReflectionProbeUsage: 1
  m_RenderingLayerMask: 1
  m_RendererPriority: 0
  m_Materials:
  - {fileID: 10754, guid: 0000000000000000f000000000000000, type: 0}
  m_StaticBatchInfo:
    firstSubMesh: 0
    subMeshCount: 0
  m_StaticBatchRoot: {fileID: 0}
  m_ProbeAnchor: {fileID: 0}
  m_LightProbeVolumeOverride: {fileID: 0}
  m_ScaleInLightmap: 1
  m_PreserveUVs: 0
  m_IgnoreNormalsForChartDetection: 0
  m_ImportantGI: 0
  m_StitchLightmapSeams: 0
  m_SelectedEditorRenderState: 0
  m_MinimumChartSize: 4
  m_AutoUVMaxDistance: 0.5
  m_AutoUVMaxAngle: 89
  m_LightmapParameters: {fileID: 0}
  m_SortingLayerID: 282596979
  m_SortingLayer: 2
  m_SortingOrder: 0
  m_Sprite: {fileID: 21300000, guid: 3154912113cbb4a498df6f571c74e18c, type: 3}
  m_Color: {r: 1, g: 1, b: 1, a: 1}
  m_FlipX: 0
  m_FlipY: 0
  m_DrawMode: 0
  m_Size: {x: 5.12, y: 5.12}
  m_AdaptiveModeThreshold: 0.5
  m_SpriteTileMode: 0
  m_WasSpriteAssigned: 1
  m_MaskInteraction: 0
  m_SpriteSortPoint: 0
--- !u!61 &8898929690124202198
BoxCollider2D:
  m_ObjectHideFlags: 0
  m_CorrespondingSourceObject: {fileID: 0}
  m_PrefabInstance: {fileID: 0}
  m_PrefabAsset: {fileID: 0}
  m_GameObject: {fileID: 5076982813003823054}
  m_Enabled: 1
  m_Density: 1
  m_Material: {fileID: 0}
  m_IsTrigger: 1
  m_UsedByEffector: 0
  m_UsedByComposite: 0
  m_Offset: {x: 0.005554378, y: -0.0050833225}
  m_SpriteTilingProperty:
    border: {x: 0, y: 0, z: 0, w: 0}
    pivot: {x: 0.5, y: 0.5}
    oldSize: {x: 5.12, y: 5.12}
    newSize: {x: 5.12, y: 5.12}
    adaptiveTilingThreshold: 0.5
    drawMode: 0
    adaptiveTiling: 0
  m_AutoTiling: 0
  serializedVersion: 2
  m_Size: {x: 2.176373, y: 2.8437953}
  m_EdgeRadius: 0
--- !u!114 &6239753086581085822
MonoBehaviour:
  m_ObjectHideFlags: 0
  m_CorrespondingSourceObject: {fileID: 0}
  m_PrefabInstance: {fileID: 0}
  m_PrefabAsset: {fileID: 0}
  m_GameObject: {fileID: 5076982813003823054}
  m_Enabled: 1
  m_EditorHideFlags: 0
  m_Script: {fileID: 11500000, guid: a5e7fcd7427f8e542bf6e2c37435b72b, type: 3}
  m_Name: 
  m_EditorClassIdentifier: 
  _speed: 2.5
  _health: 100
  _deathAnimation: {fileID: 2643619431153768401, guid: 0b4090533d857a64694800b998091d42,
    type: 3}
--- !u!1001 &2614608334329066959
PrefabInstance:
  m_ObjectHideFlags: 0
  serializedVersion: 2
  m_Modification:
    m_TransformParent: {fileID: 5076982813003823048}
    m_Modifications:
    - target: {fileID: 8231653906496917596, guid: 801797ce9e8e3444ca35ad943dc3d08f,
        type: 3}
      propertyPath: m_Name
      value: Thruster (1)
      objectReference: {fileID: 0}
    - target: {fileID: 8201795614909772887, guid: 801797ce9e8e3444ca35ad943dc3d08f,
        type: 3}
      propertyPath: m_LocalPosition.x
      value: 0.42
      objectReference: {fileID: 0}
    - target: {fileID: 8201795614909772887, guid: 801797ce9e8e3444ca35ad943dc3d08f,
        type: 3}
      propertyPath: m_LocalPosition.y
      value: 2.06
      objectReference: {fileID: 0}
    - target: {fileID: 8201795614909772887, guid: 801797ce9e8e3444ca35ad943dc3d08f,
        type: 3}
      propertyPath: m_LocalPosition.z
      value: 0
      objectReference: {fileID: 0}
    - target: {fileID: 8201795614909772887, guid: 801797ce9e8e3444ca35ad943dc3d08f,
        type: 3}
      propertyPath: m_LocalRotation.x
      value: 0
      objectReference: {fileID: 0}
    - target: {fileID: 8201795614909772887, guid: 801797ce9e8e3444ca35ad943dc3d08f,
        type: 3}
      propertyPath: m_LocalRotation.y
      value: 0
      objectReference: {fileID: 0}
    - target: {fileID: 8201795614909772887, guid: 801797ce9e8e3444ca35ad943dc3d08f,
        type: 3}
      propertyPath: m_LocalRotation.z
      value: 1
      objectReference: {fileID: 0}
    - target: {fileID: 8201795614909772887, guid: 801797ce9e8e3444ca35ad943dc3d08f,
        type: 3}
      propertyPath: m_LocalRotation.w
      value: 0
      objectReference: {fileID: 0}
    - target: {fileID: 8201795614909772887, guid: 801797ce9e8e3444ca35ad943dc3d08f,
        type: 3}
      propertyPath: m_RootOrder
      value: 1
      objectReference: {fileID: 0}
    - target: {fileID: 8201795614909772887, guid: 801797ce9e8e3444ca35ad943dc3d08f,
        type: 3}
      propertyPath: m_LocalEulerAnglesHint.x
      value: 0
      objectReference: {fileID: 0}
    - target: {fileID: 8201795614909772887, guid: 801797ce9e8e3444ca35ad943dc3d08f,
        type: 3}
      propertyPath: m_LocalEulerAnglesHint.y
      value: 0
      objectReference: {fileID: 0}
    - target: {fileID: 8201795614909772887, guid: 801797ce9e8e3444ca35ad943dc3d08f,
        type: 3}
      propertyPath: m_LocalEulerAnglesHint.z
      value: 180
      objectReference: {fileID: 0}
    - target: {fileID: 8201795614909772887, guid: 801797ce9e8e3444ca35ad943dc3d08f,
        type: 3}
      propertyPath: m_LocalScale.x
      value: 0.123720005
      objectReference: {fileID: 0}
    - target: {fileID: 8201795614909772887, guid: 801797ce9e8e3444ca35ad943dc3d08f,
        type: 3}
      propertyPath: m_LocalScale.y
      value: 0.342
      objectReference: {fileID: 0}
    m_RemovedComponents: []
  m_SourcePrefab: {fileID: 100100000, guid: 801797ce9e8e3444ca35ad943dc3d08f, type: 3}
--- !u!4 &6168336945332617624 stripped
Transform:
  m_CorrespondingSourceObject: {fileID: 8201795614909772887, guid: 801797ce9e8e3444ca35ad943dc3d08f,
    type: 3}
  m_PrefabInstance: {fileID: 2614608334329066959}
  m_PrefabAsset: {fileID: 0}
--- !u!1001 &4244516908827507400
PrefabInstance:
  m_ObjectHideFlags: 0
  serializedVersion: 2
  m_Modification:
    m_TransformParent: {fileID: 5076982813003823048}
    m_Modifications:
    - target: {fileID: 8231653906496917596, guid: 801797ce9e8e3444ca35ad943dc3d08f,
        type: 3}
      propertyPath: m_Name
      value: Thruster
      objectReference: {fileID: 0}
    - target: {fileID: 8201795614909772887, guid: 801797ce9e8e3444ca35ad943dc3d08f,
        type: 3}
      propertyPath: m_LocalPosition.x
      value: -0.4
      objectReference: {fileID: 0}
    - target: {fileID: 8201795614909772887, guid: 801797ce9e8e3444ca35ad943dc3d08f,
        type: 3}
      propertyPath: m_LocalPosition.y
      value: 2.07
      objectReference: {fileID: 0}
    - target: {fileID: 8201795614909772887, guid: 801797ce9e8e3444ca35ad943dc3d08f,
        type: 3}
      propertyPath: m_LocalPosition.z
      value: 0
      objectReference: {fileID: 0}
    - target: {fileID: 8201795614909772887, guid: 801797ce9e8e3444ca35ad943dc3d08f,
        type: 3}
      propertyPath: m_LocalRotation.x
      value: 0
      objectReference: {fileID: 0}
    - target: {fileID: 8201795614909772887, guid: 801797ce9e8e3444ca35ad943dc3d08f,
        type: 3}
      propertyPath: m_LocalRotation.y
      value: 0
      objectReference: {fileID: 0}
    - target: {fileID: 8201795614909772887, guid: 801797ce9e8e3444ca35ad943dc3d08f,
        type: 3}
      propertyPath: m_LocalRotation.z
      value: 1
      objectReference: {fileID: 0}
    - target: {fileID: 8201795614909772887, guid: 801797ce9e8e3444ca35ad943dc3d08f,
        type: 3}
      propertyPath: m_LocalRotation.w
      value: 0
      objectReference: {fileID: 0}
    - target: {fileID: 8201795614909772887, guid: 801797ce9e8e3444ca35ad943dc3d08f,
        type: 3}
      propertyPath: m_RootOrder
      value: 0
      objectReference: {fileID: 0}
    - target: {fileID: 8201795614909772887, guid: 801797ce9e8e3444ca35ad943dc3d08f,
        type: 3}
      propertyPath: m_LocalEulerAnglesHint.x
      value: 0
      objectReference: {fileID: 0}
    - target: {fileID: 8201795614909772887, guid: 801797ce9e8e3444ca35ad943dc3d08f,
        type: 3}
      propertyPath: m_LocalEulerAnglesHint.y
      value: 0
      objectReference: {fileID: 0}
    - target: {fileID: 8201795614909772887, guid: 801797ce9e8e3444ca35ad943dc3d08f,
        type: 3}
      propertyPath: m_LocalEulerAnglesHint.z
      value: 180
      objectReference: {fileID: 0}
    - target: {fileID: 8201795614909772887, guid: 801797ce9e8e3444ca35ad943dc3d08f,
        type: 3}
      propertyPath: m_LocalScale.x
      value: 0.123720005
      objectReference: {fileID: 0}
    - target: {fileID: 8201795614909772887, guid: 801797ce9e8e3444ca35ad943dc3d08f,
        type: 3}
      propertyPath: m_LocalScale.y
      value: 0.342
      objectReference: {fileID: 0}
    m_RemovedComponents: []
  m_SourcePrefab: {fileID: 100100000, guid: 801797ce9e8e3444ca35ad943dc3d08f, type: 3}
--- !u!4 &5419286155633938079 stripped
Transform:
  m_CorrespondingSourceObject: {fileID: 8201795614909772887, guid: 801797ce9e8e3444ca35ad943dc3d08f,
    type: 3}
  m_PrefabInstance: {fileID: 4244516908827507400}
  m_PrefabAsset: {fileID: 0}
