%YAML 1.1
%TAG !u! tag:unity3d.com,2011:
--- !u!74 &7400000
AnimationClip:
  m_ObjectHideFlags: 0
  m_CorrespondingSourceObject: {fileID: 0}
  m_PrefabInstance: {fileID: 0}
  m_PrefabAsset: {fileID: 0}
  m_Name: TrippleshotPowerupAnimation
  serializedVersion: 6
  m_Legacy: 0
  m_Compressed: 0
  m_UseHighQualityCurve: 1
  m_RotationCurves: []
  m_CompressedRotationCurves: []
  m_EulerCurves: []
  m_PositionCurves: []
  m_ScaleCurves: []
  m_FloatCurves: []
  m_PPtrCurves:
  - curve:
    - time: 0
      value: {fileID: 21300000, guid: ed6681d697652144a913093bf7ad1d43, type: 3}
    - time: 0.1
      value: {fileID: 21300000, guid: 94af496add7d99549a0a09e585214f18, type: 3}
    - time: 0.2
      value: {fileID: 21300000, guid: 042b929092df468479c9d6475c1883fb, type: 3}
    - time: 0.3
      value: {fileID: 21300000, guid: 3f1c2590613aad2458e88e95f67764a7, type: 3}
    - time: 0.4
      value: {fileID: 21300000, guid: 08721a7e8122ae54cb60f5e90df70269, type: 3}
    - time: 0.5
      value: {fileID: 21300000, guid: c08087d4d2986fe468456f3736b55019, type: 3}
    - time: 0.6
      value: {fileID: 21300000, guid: a58a8d41efafe8343b08c0b7f3b1b916, type: 3}
    - time: 0.7
      value: {fileID: 21300000, guid: f669da5eb59644649bd06f1af0e73349, type: 3}
    - time: 0.8
      value: {fileID: 21300000, guid: d371d99a043ff16448c9dc33862f94f9, type: 3}
    - time: 0.9
      value: {fileID: 21300000, guid: 27c59d36a1e7ec540864bea51d49bdaf, type: 3}
    - time: 1
      value: {fileID: 21300000, guid: 95c617d16f9b8a9448ac5779db6e4c68, type: 3}
    - time: 1.1
      value: {fileID: 21300000, guid: b2cdea34ebf3d9a4ebc57de48bbd1a14, type: 3}
    - time: 1.2
      value: {fileID: 21300000, guid: bb5ba4f63cfbfdb4eb8a9bc18fd5c46e, type: 3}
    - time: 1.3
      value: {fileID: 21300000, guid: 201c6bec23c7da9448c3e8bf7a26e89f, type: 3}
    - time: 1.4
      value: {fileID: 21300000, guid: fadf90cfbc0b3524ab83eda8a359c35a, type: 3}
    - time: 1.5
      value: {fileID: 21300000, guid: 203a96b1228f08f4e8f7e2a4f756a0df, type: 3}
    attribute: m_Sprite
    path: 
    classID: 212
    script: {fileID: 0}
  m_SampleRate: 10
  m_WrapMode: 0
  m_Bounds:
    m_Center: {x: 0, y: 0, z: 0}
    m_Extent: {x: 0, y: 0, z: 0}
  m_ClipBindingConstant:
    genericBindings:
    - serializedVersion: 2
      path: 0
      attribute: 0
      script: {fileID: 0}
      typeID: 212
      customType: 23
      isPPtrCurve: 1
    pptrCurveMapping:
    - {fileID: 21300000, guid: ed6681d697652144a913093bf7ad1d43, type: 3}
    - {fileID: 21300000, guid: 94af496add7d99549a0a09e585214f18, type: 3}
    - {fileID: 21300000, guid: 042b929092df468479c9d6475c1883fb, type: 3}
    - {fileID: 21300000, guid: 3f1c2590613aad2458e88e95f67764a7, type: 3}
    - {fileID: 21300000, guid: 08721a7e8122ae54cb60f5e90df70269, type: 3}
    - {fileID: 21300000, guid: c08087d4d2986fe468456f3736b55019, type: 3}
    - {fileID: 21300000, guid: a58a8d41efafe8343b08c0b7f3b1b916, type: 3}
    - {fileID: 21300000, guid: f669da5eb59644649bd06f1af0e73349, type: 3}
    - {fileID: 21300000, guid: d371d99a043ff16448c9dc33862f94f9, type: 3}
    - {fileID: 21300000, guid: 27c59d36a1e7ec540864bea51d49bdaf, type: 3}
    - {fileID: 21300000, guid: 95c617d16f9b8a9448ac5779db6e4c68, type: 3}
    - {fileID: 21300000, guid: b2cdea34ebf3d9a4ebc57de48bbd1a14, type: 3}
    - {fileID: 21300000, guid: bb5ba4f63cfbfdb4eb8a9bc18fd5c46e, type: 3}
    - {fileID: 21300000, guid: 201c6bec23c7da9448c3e8bf7a26e89f, type: 3}
    - {fileID: 21300000, guid: fadf90cfbc0b3524ab83eda8a359c35a, type: 3}
    - {fileID: 21300000, guid: 203a96b1228f08f4e8f7e2a4f756a0df, type: 3}
  m_AnimationClipSettings:
    serializedVersion: 2
    m_AdditiveReferencePoseClip: {fileID: 0}
    m_AdditiveReferencePoseTime: 0
    m_StartTime: 0
    m_StopTime: 1.6
    m_OrientationOffsetY: 0
    m_Level: 0
    m_CycleOffset: 0
    m_HasAdditiveReferencePose: 0
    m_LoopTime: 1
    m_LoopBlend: 0
    m_LoopBlendOrientation: 0
    m_LoopBlendPositionY: 0
    m_LoopBlendPositionXZ: 0
    m_KeepOriginalOrientation: 0
    m_KeepOriginalPositionY: 1
    m_KeepOriginalPositionXZ: 0
    m_HeightFromFeet: 0
    m_Mirror: 0
  m_EditorCurves: []
  m_EulerEditorCurves: []
  m_HasGenericRootTransform: 0
  m_HasMotionFloatCurves: 0
  m_Events: []
